ORA with R
…
# -------------------------------------------------------------------------
# How many symbols are NA?
table(is.na(rsd_diffex$symbol))

FALSE  TRUE 
16114   135 

# -------------------------------------------------------------------------
# Filter out the NAs
rsd_diffex = rsd_diffex %>% dplyr::filter(!is.na(symbol))

# Verify we have fewer by noting dimension of resulting table
rsd_diffex

# A tibble: 16,114 × 9
   id                 symbol baseMean log2FoldChange lfcSE   stat pvalue   padj call 
   <chr>              <chr>     <dbl>          <dbl> <dbl>  <dbl>  <dbl>  <dbl> <chr>
 1 ENSMUSG00000000001 Gnai3   1490.            0.278 0.148  1.88  0.0605  0.325 NS   
 2 ENSMUSG00000000028 Cdc45   1749.            0.222 0.129  1.72  0.0853  0.386 NS   
 3 ENSMUSG00000000031 H19     2152.            0.136 0.284  0.478 0.633   0.867 NS   
 4 ENSMUSG00000000037 Scml2     24.9           0.600 0.562  1.07  0.286  NA     NS   
 5 ENSMUSG00000000049 Apoh       7.78         -1.23  1.15  -1.07  0.285  NA     NS   
 6 ENSMUSG00000000056 Narf   19654.           -0.201 0.167 -1.20  0.229   0.596 NS   
 7 ENSMUSG00000000078 Klf6     951.           -0.131 0.166 -0.788 0.430   0.752 NS   
 8 ENSMUSG00000000085 Scmh1    727.            0.232 0.186  1.25  0.212   0.577 NS   
 9 ENSMUSG00000000088 Cox5a   1427.           -0.264 0.205 -1.29  0.198   0.556 NS   
10 ENSMUSG00000000093 Tbx2      15.2           0.548 0.663  0.826 0.409  NA     NS   
# ℹ 16,104 more rows
…
