GSEA with R
…
# -------------------------------------------------------------------------
# How many symbols are NA?
table(is.na(isc_d21_v_d7$gene))

FALSE 
23608 

# -------------------------------------------------------------------------
# Filter out the NAs
isc_d21_v_d7 = isc_d21_v_d7 %>% dplyr::filter(!is.na(gene))

# Verify we have fewer by noting dimension of resulting table
isc_d21_v_d7

# A tibble: 23,608 × 6
       p_val avg_log2FC pct.1 pct.2 p_val_adj gene   
       <dbl>      <dbl> <dbl> <dbl>     <dbl> <chr>  
 1 3.86e-232      2.91      1     1 1.02e-227 Cilp2  
 2 5.63e-118      1.71      1     1 1.49e-113 Ltbp4  
 3 1.85e- 95      1.29      1     1 4.91e- 91 Cd55   
 4 2.60e- 87      1.64      1     1 6.88e- 83 Prss23 
 5 3.02e- 87     -1.59      1     1 8.00e- 83 Nav3   
 6 7.46e- 82      2.25      1     1 1.98e- 77 Gm42418
 7 3.19e- 81      1.16      1     1 8.44e- 77 Osbpl3 
 8 3.70e- 78      1.06      1     1 9.79e- 74 Lamb2  
 9 3.09e- 76      2.00      1     1 8.19e- 72 Wfdc1  
10 1.80e- 73      0.859     1     1 4.76e- 69 Abtb2  
# ℹ 23,598 more rows
…
